﻿{
  "dependencies": {
    "Esri.ArcGISRuntime.Xamarin.Forms": "100.2.0",
    "Microsoft.NETCore.UniversalWindowsPlatform": "6.0.4"
  },
  "frameworks": {
    "uap10.0.14393": {}
  },
  "runtimes": {
    "win10-arm": {},
    "win10-arm-aot": {},
    "win10-x86": {},
    "win10-x86-aot": {},
    "win10-x64": {},
    "win10-x64-aot": {}
  }
}